Lecture 3 — Data Management & Collection
…
daily <- js[["Time Series (Daily)"]]
prices <- imap_dfr(daily, ~ tibble::tibble(
  date   = as.Date(.y),
  open   = as.numeric(.x[["1. open"]]),
  high   = as.numeric(.x[["2. high"]]),
  low    = as.numeric(.x[["3. low"]]),
  close  = as.numeric(.x[["4. close"]]),
  volume = as.numeric(.x[["5. volume"]])
)) |>
  arrange(date)
prices

# A tibble: 100 × 6
   date        open  high   low close   volume
   <date>     <dbl> <dbl> <dbl> <dbl>    <dbl>
 1 2025-06-16  475.  481.  475   479. 15626104
 2 2025-06-17  475.  479.  474.  478. 15414128
 3 2025-06-18  478   481   474.  480. 17526452
 4 2025-06-20  482.  483.  477.  477. 37576206
 5 2025-06-23  478.  488.  473.  486  24863952
 6 2025-06-24  489.  492.  487.  490. 22305642
 7 2025-06-25  492.  495.  489.  492. 17495099
 8 2025-06-26  493.  498.  493.  497. 21578853
 9 2025-06-27  498.  499.  493.  496. 34539236
10 2025-06-30  497.  501.  495.  497. 28368991
# ℹ 90 more rows
…
